{
    "name": "cdb-test-pipe-docker",
    "description": "Bitbucket pipe test for cdb_controls",
    "owner": "meekrosoft",
    "visibility": "public",
    "template": [
        "artifact",
        "pytest_test_results"
    ]
}